y = - 2 x - 2 y - 1 2 x + 2 y - 1 2 x - 2 y - 1 2 x - 2 y - 1 2 x - 2 y - 1 2 x - 2 y - 1 2 x - 2 y - 1 2 x - 2 y - 2 x - 2 y -
y = - 2 x - 2 y - 1 2 x + 2 y - 1 2 x - 2 y - 1 2 x - 2 y - 1 2 x - 2 y - 1 2 x - 2 y - 1 2 x - 2 y - 1 2 x - 2 y - 2 x - 2 y -
y = - 2 x - 2 y - 1 2 x + 2 y - 1 2 x - 2 y - 1 2 x - 2 y - 1 2 x - 2 y - 1 2 x - 2 y - 1 2 x - 2 y - 1 2 x - 2 y - 2 x - 2 y -
y = - 2 x - 2 y - 1 2 x + 2 y - 1 2 x - 2 y - 1 2 x - 2 y - 1 2 x - 2 y - 1 2 x - 2 y - 1 2 x - 2 y - 1 2 x - 2 y - 2 x - 2 y -
y = - 2 x - 2 y - 1 2 x + 2 y - 1 2 x - 2 y - 1 2 x - 2 y - 1 2 x - 2 y - 1 2 x - 2 y - 1 2 x - 2 y - 1 2 x - 2 y - 2 x - 2 y -
y = - 2 x - 2 y - 1 2 x + 2 y - 1 2 x - 2 y - 1 2 x - 2 y - 1 2 x - 2 y - 1 2 x - 2 y - 1 2 x - 2 y - 1 2 x - 2 y - 2 x - 2 y -
y = - 2 x - 2 y - 1 2 x + 2 y - 1 2 x - 2 y - 1 2 x - 2 y - 1 2 x - 2 y - 1 2 x - 2 y - 2 x - 2 y - 1 2 x + 2 y - 1 2 x + 2 y -
y = - 2 x - 2 y - 1 2 x + 2 y - 1 2 x - 2 y - 1 2 x - 2 y - 1 2 x - 2 y - 1 2 x - 2 y - 2 x - 2 y - 1 2 x + 2 y - 1 2 x + 2 y -
y = - 2 x - 2 y - 1 2 x + 2 y - 1 2 x - 2 y - 1 2 x - 2 y - 1 2 x - 2 y - 1 2 x - 2 y - 1 2 x - 2 y - 1 2 x - 2 y - 2 x - 2 y -
y = - 2 x - 2 y - 1 2 x + 2 y - 1 2 x - 2 y - 1 2 x - 2 y - 1 2 x - 2 y - 1 2 x - 2 y - 2 x - 2 y - 1 2 x + 2 y - 1 2 x + 2 y -
y = - 2 x - 2 y - 1 2 x + 2 y - 1 2 x - 2 y - 1 2 x - 2 y - 1 2 x - 2 y - 1 2 x - 2 y - 1 2 x - 2 y - 1 2 x - 2 y - 2 x - 2 y -
y = - 2 x - 2 y - 1 2 x + 2 y - 1 2 x - 2 y - 1 2 x - 2 y - 1 2 x - 2 y - 1 2 x - 2 y - 2 x - 2 y - 1 2 x + 2 y - 1 2 x + 2 y -
y = - 2 x - 2 y - 1 2 x + 2 y - 1 2 x - 2 y - 1 2 x - 2 y - 1 2 x - 2 y - 1 2 x - 2 y - 1 2 x - 2 y - 1 2 x - 2 y - 2 x - 2 y -
y = - 2 x - 2 y - 1 2 x + 2 y - 1 2 x - 2 y - 1 2 x - 2 y - 1 2 x - 2 y - 1 2 x - 2 y - 2 x - 2 y - 1 2 x + 2 y - 1 2 x + 2 y -y = x ^ { 2 } + x y ^ { 2 } + x y ^ { 2 } + x y ^ { 2 } + x y ^ { 2 } + x y ^ { 2 } + x y ^ { 2 } + x y ^ { 2 } + x y ^ { 2 } +
y = x ^ { 2 } + x y ^ { 2 } + x y ^ { 2 } + x y ^ { 2 } + x y ^ { 2 } + x y ^ { 2 } + x y ^ { 2 } + x y ^ { 2 } + x y ^ { 2 } +y = x ^ { 2 }
y = x ^ { 2 }
y = x ^ { 2 }
y = x ^ { 2 }
y = x ^ { 2 }
y = x ^ { 2 }
y = x ^ { 2 }
y = x ^ { 2 }
y = x ^ { 2 }
y = x ^ { 2 }
y = x ^ { 2 }
y = x ^ { 2 }
y = x ^ { 2 }
y = x ^ { 2 }